<?xml version="1.0" encoding="utf-8"?>
<COLLADA xmlns="http://www.collada.org/2005/11/COLLADASchema" version="1.4.1">
  <asset>
    <contributor>
      <author>Blender User</author>
      <authoring_tool>Blender 2.75.0 commit date:2015-07-01, commit time:12:00, hash:c6b042b</authoring_tool>
    </contributor>
    <created>2015-07-07T14:46:50</created>
    <modified>2015-07-07T14:46:50</modified>
    <unit name="meter" meter="1"/>
    <up_axis>Z_UP</up_axis>
  </asset>
  <library_cameras>
    <camera id="Camera-camera" name="Camera.001">
      <optics>
        <technique_common>
          <perspective>
            <xfov sid="xfov">49.13434</xfov>
            <aspect_ratio>1.777778</aspect_ratio>
            <znear sid="znear">0.1</znear>
            <zfar sid="zfar">100</zfar>
          </perspective>
        </technique_common>
      </optics>
      <extra>
        <technique profile="blender">
          <YF_dofdist>0</YF_dofdist>
          <shiftx>0</shiftx>
          <shifty>0</shifty>
        </technique>
      </extra>
    </camera>
    <camera id="Camera_001-camera" name="Camera.002">
      <optics>
        <technique_common>
          <perspective>
            <xfov sid="xfov">49.13434</xfov>
            <aspect_ratio>1.777778</aspect_ratio>
            <znear sid="znear">0.1</znear>
            <zfar sid="zfar">100</zfar>
          </perspective>
        </technique_common>
      </optics>
      <extra>
        <technique profile="blender">
          <YF_dofdist>0</YF_dofdist>
          <shiftx>0</shiftx>
          <shifty>0</shifty>
        </technique>
      </extra>
    </camera>
  </library_cameras>
  <library_images/>
  <library_effects>
    <effect id="erlenmeyer-effect">
      <profile_COMMON>
        <technique sid="common">
          <phong>
            <emission>
              <color sid="emission">0 0 0 1</color>
            </emission>
            <ambient>
              <color sid="ambient">0 0 0 1</color>
            </ambient>
            <diffuse>
              <color sid="diffuse">0.64 0.64 0.64 1</color>
            </diffuse>
            <specular>
              <color sid="specular">0.5 0.5 0.5 1</color>
            </specular>
            <shininess>
              <float sid="shininess">50</float>
            </shininess>
            <reflective>
              <color>1 1 1 1</color>
            </reflective>
            <reflectivity>
              <float>0.5</float>
            </reflectivity>
            <transparency>
              <float sid="transparency">0</float>
            </transparency>
            <index_of_refraction>
              <float sid="index_of_refraction">1.1</float>
            </index_of_refraction>
          </phong>
        </technique>
      </profile_COMMON>
    </effect>
    <effect id="Material_001-effect">
      <profile_COMMON>
        <technique sid="common">
          <phong>
            <emission>
              <color sid="emission">0 0 0 1</color>
            </emission>
            <ambient>
              <color sid="ambient">0 0 0 1</color>
            </ambient>
            <diffuse>
              <color sid="diffuse">0.07873819 0.64 0.09093254 1</color>
            </diffuse>
            <specular>
              <color sid="specular">0.5 0.5 0.5 1</color>
            </specular>
            <shininess>
              <float sid="shininess">50</float>
            </shininess>
            <index_of_refraction>
              <float sid="index_of_refraction">1</float>
            </index_of_refraction>
          </phong>
        </technique>
      </profile_COMMON>
    </effect>
  </library_effects>
  <library_materials>
    <material id="erlenmeyer-material" name="erlenmeyer">
      <instance_effect url="#erlenmeyer-effect"/>
    </material>
    <material id="Material_001-material" name="Material_001">
      <instance_effect url="#Material_001-effect"/>
    </material>
  </library_materials>
  <library_geometries>
    <geometry id="Circle_003-mesh" name="Circle.003">
      <mesh>
        <source id="Circle_003-mesh-positions">
          <float_array id="Circle_003-mesh-positions-array" count="960">0 1 0 -0.1950903 0.9807853 0 -0.3826835 0.9238795 0 -0.5555703 0.8314696 0 -0.7071068 0.7071068 0 -0.8314697 0.5555702 0 -0.9238795 0.3826834 0 -0.9807853 0.1950903 0 -1 0 0 -0.9807853 -0.1950902 0 -0.9238796 -0.3826833 0 -0.8314697 -0.5555702 0 -0.7071068 -0.7071068 0 -0.5555702 -0.8314697 0 -0.3826833 -0.9238796 0 -0.1950901 -0.9807853 0 3.25841e-7 -1 0 0.1950907 -0.9807852 0 0.3826839 -0.9238793 0 0.5555707 -0.8314693 0 0.7071073 -0.7071064 0 0.83147 -0.5555697 0 0.9238799 -0.3826827 0 0.9807854 -0.1950894 0 1 9.65599e-7 0 0.9807851 0.1950913 0 0.9238791 0.3826845 0 0.8314689 0.5555713 0 0.7071059 0.7071077 0 0.5555691 0.8314704 0 0.3826821 0.9238801 0 0.1950888 0.9807856 0 0 0.8493382 -0.1666836 -0.1656976 0.8330184 -0.1666836 -0.3250277 0.7846862 -0.1666836 -0.471867 0.7061989 -0.1666836 -0.6005728 0.6005728 -0.1666836 -0.7061989 0.471867 -0.1666836 -0.7846862 0.3250277 -0.1666836 -0.8330184 0.1656977 -0.1666836 -0.8493382 0 -0.1666836 -0.8330184 -0.1656975 -0.1666836 -0.7846862 -0.3250275 -0.1666836 -0.7061989 -0.4718669 -0.1666836 -0.6005728 -0.6005727 -0.1666836 -0.471867 -0.7061989 -0.1666836 -0.3250275 -0.7846862 -0.1666836 -0.1656975 -0.8330184 -0.1666836 2.58859e-7 -0.8493381 -0.1666836 0.1656979 -0.8330183 -0.1666836 0.325028 -0.7846859 -0.1666836 0.4718674 -0.7061986 -0.1666836 0.6005732 -0.6005724 -0.1666836 0.7061992 -0.4718664 -0.1666836 0.7846865 -0.3250269 -0.1666836 0.8330185 -0.1656969 -0.1666836 0.8493382 8.63057e-7 -0.1666836 0.8330182 0.1656985 -0.1666836 0.7846857 0.3250285 -0.1666836 0.7061983 0.4718679 -0.1666836 0.600572 0.6005736 -0.1666836 0.471866 0.7061996 -0.1666836 0.3250265 0.7846867 -0.1666836 0.1656963 0.8330187 -0.1666836 0 0.8493382 -0.7837415 -0.1656976 0.8330184 -0.7837415 -0.3250277 0.7846862 -0.7837415 -0.471867 0.7061989 -0.7837415 -0.6005728 0.6005728 -0.7837415 -0.7061989 0.471867 -0.7837415 -0.7846862 0.3250277 -0.7837415 -0.8330184 0.1656977 -0.7837415 -0.8493382 0 -0.7837415 -0.8330184 -0.1656975 -0.7837415 -0.7846862 -0.3250275 -0.7837415 -0.7061989 -0.4718669 -0.7837415 -0.6005728 -0.6005727 -0.7837415 -0.471867 -0.7061989 -0.7837415 -0.3250275 -0.7846862 -0.7837415 -0.1656975 -0.8330184 -0.7837415 2.58859e-7 -0.8493381 -0.7837415 0.1656979 -0.8330183 -0.7837415 0.325028 -0.7846859 -0.7837415 0.4718674 -0.7061986 -0.7837415 0.6005732 -0.6005724 -0.7837415 0.7061992 -0.4718664 -0.7837415 0.7846865 -0.3250269 -0.7837415 0.8330185 -0.1656969 -0.7837415 0.8493382 8.63057e-7 -0.7837415 0.8330182 0.1656985 -0.7837415 0.7846857 0.3250285 -0.7837415 0.7061983 0.4718679 -0.7837415 0.600572 0.6005736 -0.7837415 0.471866 0.7061996 -0.7837415 0.3250265 0.7846867 -0.7837415 0.1656963 0.8330187 -0.7837415 0 1.316133 -1.575592 -0.2567648 1.290844 -1.575592 -0.5036623 1.215948 -1.575592 -0.7312043 1.094325 -1.575592 -0.9306465 0.9306465 -1.575592 -1.094325 0.7312042 -1.575592 -1.215948 0.5036622 -1.575592 -1.290844 0.2567647 -1.575592 -1.316133 0 -1.575592 -1.290844 -0.2567648 -1.575592 -1.215948 -0.5036622 -1.575592 -1.094325 -0.7312044 -1.575592 -0.9306465 -0.9306467 -1.575592 -0.7312043 -1.094325 -1.575592 -0.5036621 -1.215949 -1.575592 -0.2567645 -1.290844 -1.575592 4.34143e-7 -1.316133 -1.575592 0.2567653 -1.290844 -1.575592 0.5036629 -1.215948 -1.575592 0.731205 -1.094324 -1.575592 0.9306473 -0.9306461 -1.575592 1.094325 -0.7312036 -1.575592 1.215949 -0.5036614 -1.575592 1.290844 -0.2567638 -1.575592 1.316133 1.1736e-6 -1.575592 1.290844 0.2567661 -1.575592 1.215948 0.5036635 -1.575592 1.094324 0.7312056 -1.575592 0.9306454 0.9306477 -1.575592 0.7312029 1.094326 -1.575592 0.5036605 1.215949 -1.575592 0.2567629 1.290844 -1.575592 0 2.06264 -2.636679 -0.4024011 2.023007 -2.636679 -0.7893381 1.90563 -2.636679 -1.145941 1.715022 -2.636679 -1.458507 1.458506 -2.636679 -1.715023 1.145941 -2.636679 -1.905631 0.7893378 -2.636679 -2.023007 0.4024009 -2.636679 -2.06264 -1.57285e-7 -2.636679 -2.023007 -0.4024013 -2.636679 -1.905631 -0.7893382 -2.636679 -1.715023 -1.145942 -2.636679 -1.458507 -1.458507 -2.636679 -1.145941 -1.715023 -2.636679 -0.7893378 -1.905632 -2.636679 -0.4024006 -2.023007 -2.636679 7.49059e-7 -2.06264 -2.636679 0.402402 -2.023007 -2.636679 0.7893392 -1.905631 -2.636679 1.145943 -1.715022 -2.636679 1.458508 -1.458506 -2.636679 1.715023 -1.145941 -2.636679 1.905632 -0.789337 -2.636679 2.023007 -0.4023997 -2.636679 2.06264 1.67867e-6 -2.636679 2.023007 0.4024029 -2.636679 1.90563 0.78934 -2.636679 1.715021 1.145943 -2.636679 1.458505 1.458508 -2.636679 1.145939 1.715024 -2.636679 0.7893354 1.905632 -2.636679 0.4023981 2.023007 -2.636679 2.13379e-7 3.323362 -4.268033 -0.6483556 3.259504 -4.268033 -1.271795 3.070385 -4.268033 -1.846361 2.763274 -4.268033 -2.349972 2.349971 -4.268033 -2.763275 1.84636 -4.268033 -3.070386 1.271795 -4.268033 -3.259505 0.6483551 -4.268033 -3.323362 -4.72009e-7 -4.268033 -3.259505 -0.6483563 -4.268033 -3.070386 -1.271796 -4.268033 -2.763275 -1.846362 -4.268033 -2.349972 -2.349973 -4.268033 -1.846361 -2.763276 -4.268033 -1.271795 -3.070387 -4.268033 -0.6483548 -3.259506 -4.268033 1.29627e-6 -3.323363 -4.268033 0.6483573 -3.259506 -4.268033 1.271797 -3.070386 -4.268033 1.846363 -2.763274 -4.268033 2.349974 -2.349971 -4.268033 2.763276 -1.84636 -4.268033 3.070387 -1.271794 -4.268033 3.259505 -0.6483536 -4.268033 3.323362 2.48612e-6 -4.268033 3.259504 0.6483585 -4.268033 3.070384 1.271798 -4.268033 2.763272 1.846364 -4.268033 2.349969 2.349974 -4.268033 1.846358 2.763277 -4.268033 1.271791 3.070388 -4.268033 0.6483511 3.259505 -4.268033 2.13379e-7 3.323362 -4.612343 -0.6483556 3.259504 -4.612343 -1.271795 3.070385 -4.612343 -1.846361 2.763274 -4.612343 -2.349972 2.349971 -4.612343 -2.763275 1.84636 -4.612343 -3.070386 1.271795 -4.612343 -3.259505 0.6483551 -4.612343 -3.323362 -4.72009e-7 -4.612343 -3.259505 -0.6483563 -4.612343 -3.070386 -1.271796 -4.612343 -2.763275 -1.846362 -4.612343 -2.349972 -2.349973 -4.612343 -1.846361 -2.763276 -4.612343 -1.271795 -3.070387 -4.612343 -0.6483548 -3.259506 -4.612343 1.29627e-6 -3.323363 -4.612343 0.6483573 -3.259506 -4.612343 1.271797 -3.070386 -4.612343 1.846363 -2.763274 -4.612343 2.349974 -2.349971 -4.612343 2.763276 -1.84636 -4.612343 3.070387 -1.271794 -4.612343 3.259505 -0.6483536 -4.612343 3.323362 2.48612e-6 -4.612343 3.259504 0.6483585 -4.612343 3.070384 1.271798 -4.612343 2.763272 1.846364 -4.612343 2.349969 2.349974 -4.612343 1.846358 2.763277 -4.612343 1.271791 3.070388 -4.612343 0.6483511 3.259505 -4.612343 1.95496e-7 3.154144 -4.901374 -0.6153428 3.093537 -4.901374 -1.207038 2.914048 -4.901374 -1.752348 2.622575 -4.901374 -2.230317 2.230316 -4.901374 -2.622575 1.752348 -4.901374 -2.914049 1.207038 -4.901374 -3.093538 0.6153424 -4.901374 -3.154144 -4.31283e-7 -4.901374 -3.093538 -0.6153433 -4.901374 -2.914049 -1.207039 -4.901374 -2.622575 -1.752349 -4.901374 -2.230317 -2.230317 -4.901374 -1.752348 -2.622576 -4.901374 -1.207038 -2.91405 -4.901374 -0.615342 -3.093539 -4.901374 1.22325e-6 -3.154145 -4.901374 0.6153444 -3.093539 -4.901374 1.20704 -2.914049 -4.901374 1.75235 -2.622575 -4.901374 2.230318 -2.230316 -4.901374 2.622576 -1.752347 -4.901374 2.91405 -1.207037 -4.901374 3.093538 -0.6153408 -4.901374 3.154144 2.37622e-6 -4.901374 3.093538 0.6153455 -4.901374 2.914047 1.207041 -4.901374 2.622573 1.752351 -4.901374 2.230314 2.230319 -4.901374 1.752345 2.622577 -4.901374 1.207034 2.914051 -4.901374 0.6153385 3.093538 -4.901374 1.37585e-7 2.824975 -5.135176 -0.5511252 2.770694 -5.135176 -1.081071 2.609936 -5.135176 -1.569472 2.348881 -5.135176 -1.997559 1.997559 -5.135176 -2.348881 1.569471 -5.135176 -2.609937 1.081071 -5.135176 -2.770694 0.5511249 -5.135176 -2.824975 -3.49703e-7 -5.135176 -2.770694 -0.5511256 -5.135176 -2.609937 -1.081071 -5.135176 -2.348881 -1.569473 -5.135176 -1.997559 -1.99756 -5.135176 -1.569472 -2.348882 -5.135176 -1.081071 -2.609937 -5.135176 -0.5511245 -2.770695 -5.135176 1.05808e-6 -2.824976 -5.135176 0.5511266 -2.770695 -5.135176 1.081072 -2.609936 -5.135176 1.569474 -2.348881 -5.135176 1.997561 -1.997559 -5.135176 2.348882 -1.569471 -5.135176 2.609937 -1.08107 -5.135176 2.770694 -0.5511234 -5.135176 2.824975 2.16481e-6 -5.135176 2.770694 0.5511276 -5.135176 2.609935 1.081073 -5.135176 2.348879 1.569474 -5.135176 1.997557 1.997561 -5.135176 1.569469 2.348883 -5.135176 1.081067 2.609938 -5.135176 0.5511213 2.770694 -5.135176 -1.90295e-7 -0.8083658 -5.135178 0.1577042 -0.7928331 -5.135178 0.3093481 -0.7468324 -5.135178 0.4491041 -0.6721315 -5.135178 0.571601 -0.5716008 -5.135178 0.6721318 -0.4491036 -5.135178 0.7468329 -0.3093478 -5.135178 0.7928336 -0.1577038 -5.135178 0.8083661 5.02535e-7 -5.135178 0.7928336 0.1577048 -5.135178 0.7468329 0.3093487 -5.135178 0.6721318 0.4491047 -5.135178 0.571601 0.5716018 -5.135178 0.4491038 0.6721325 -5.135178 0.3093481 0.7468336 -5.135178 0.157704 0.7928343 -5.135178 -4.53694e-7 0.8083668 -5.135178 -0.1577049 0.7928343 -5.135178 -0.3093488 0.7468333 -5.135178 -0.4491048 0.6721323 -5.135178 -0.5716018 0.5716015 -5.135178 -0.6721323 0.4491042 -5.135178 -0.7468333 0.3093484 -5.135178 -0.7928338 0.1577042 -5.135178 -0.8083663 -2.16992e-7 -5.135178 -0.7928336 -0.1577046 -5.135178 -0.7468326 -0.3093486 -5.135178 -0.6721315 -0.4491044 -5.135178 -0.5716006 -0.5716013 -5.135178 -0.4491035 -0.672132 -5.135178 -0.3093474 -0.7468329 -5.135178 -0.1577033 -0.7928333 -5.135178</float_array>
          <technique_common>
            <accessor source="#Circle_003-mesh-positions-array" count="320" stride="3">
              <param name="X" type="float"/>
              <param name="Y" type="float"/>
              <param name="Z" type="float"/>
            </accessor>
          </technique_common>
        </source>
        <source id="Circle_003-mesh-normals">
          <float_array id="Circle_003-mesh-normals-array" count="867">0.6168206 -0.4121598 -0.6705646 0.5245651 -0.5245651 -0.6705693 0.657765 -0.657765 -0.3670019 -0.7276012 0.1447206 -0.6705613 -0.9123499 0.1814689 -0.366997 -0.9302238 0 -0.3669928 0.6853907 -0.2838857 -0.6705585 0.7734478 -0.5168119 -0.3669932 -0.7418538 0 -0.6705616 -0.9123499 -0.1814689 -0.366997 0.7276012 -0.1447206 -0.6705613 0.8594177 -0.3559747 -0.3669921 -0.7276012 -0.1447206 -0.6705613 -0.8594177 -0.3559747 -0.3669921 0.7418538 0 -0.6705616 0.9123499 -0.1814689 -0.366997 -0.6853907 -0.2838857 -0.6705585 -0.7734478 -0.5168119 -0.3669932 0.7276012 0.1447206 -0.6705613 0.9302238 0 -0.3669928 -0.6168206 -0.4121598 -0.6705646 -0.657765 -0.657765 -0.3670019 0.6853907 0.2838857 -0.6705585 0.9123499 0.1814689 -0.366997 -0.5245651 -0.5245651 -0.6705693 -0.5168119 -0.7734478 -0.3669932 0.6168206 0.4121598 -0.6705646 0.8594177 0.3559747 -0.3669921 -0.4121598 -0.6168206 -0.6705646 -0.3559747 -0.8594177 -0.3669921 -0.1447206 0.7276012 -0.6705613 0 0.7418538 -0.6705616 0 0.9302238 -0.3669928 0.5245651 0.5245651 -0.6705693 0.7734478 0.5168119 -0.3669932 -0.1447206 -0.7276012 -0.6705613 -0.2838857 -0.6853907 -0.6705585 -0.2838857 0.6853907 -0.6705585 -0.1814689 0.9123499 -0.366997 0.4121598 0.6168206 -0.6705646 0.657765 0.657765 -0.3670019 -0.1814689 -0.9123499 -0.366997 0 -0.9302238 -0.3669928 -0.3559747 0.8594177 -0.3669921 -0.5168119 0.7734478 -0.3669932 0.2838857 0.6853907 -0.6705585 0.5168119 0.7734478 -0.3669932 0 -0.7418538 -0.6705616 0.1814689 -0.9123499 -0.366997 -0.4121598 0.6168206 -0.6705646 -0.657765 0.657765 -0.3670019 0.1447206 0.7276012 -0.6705613 0.3559747 0.8594177 -0.3669921 0.2838857 -0.6853907 -0.6705585 0.1447206 -0.7276012 -0.6705613 -0.5245651 0.5245651 -0.6705693 -0.7734478 0.5168119 -0.3669932 0.1814689 0.9123499 -0.366997 0.3559747 -0.8594177 -0.3669921 0.5168119 -0.7734478 -0.3669932 -0.6168206 0.4121598 -0.6705646 -0.8594177 0.3559747 -0.3669921 0.4121598 -0.6168206 -0.6705646 -0.6853907 0.2838857 -0.6705585 -0.1879687 -0.9450624 0.2674411 0 -0.9635753 0.2674377 -0.3687385 0.890228 0.2674438 -0.5353332 0.8011838 0.2674377 0.5353332 0.8011838 0.2674377 0.3687385 0.890228 0.2674438 0.1879687 -0.9450624 0.2674411 -0.6813495 0.6813495 0.267443 0.1879687 0.9450624 0.2674411 0.3687385 -0.890228 0.2674438 -0.8011838 0.5353332 0.2674377 0 0.9635753 0.2674377 0.5353332 -0.8011838 0.2674377 -0.890228 0.3687385 0.2674438 0.6813495 -0.6813495 0.267443 -0.9450624 0.1879687 0.2674411 0.8011838 -0.5353332 0.2674377 -0.9635753 0 0.2674377 0.890228 -0.3687385 0.2674438 -0.9450624 -0.1879687 0.2674411 0.9450624 -0.1879687 0.2674411 -0.890228 -0.3687385 0.2674438 0.9635753 0 0.2674377 -0.8011838 -0.5353332 0.2674377 0.9450624 0.1879687 0.2674411 -0.6813495 -0.6813495 0.267443 0.890228 0.3687385 0.2674438 -0.5353332 -0.8011838 0.2674377 0.8011838 0.5353332 0.2674377 -0.3687385 -0.890228 0.2674438 -0.1879687 0.9450624 0.2674411 0.6813495 0.6813495 0.267443 0.3213056 -0.7757051 0.5431798 -0.6981087 0.4664638 0.5431904 -0.7757051 0.3213056 0.5431798 0.4664638 -0.6981087 0.5431904 0.5936957 -0.5936957 0.5431859 0.6981087 -0.4664638 0.5431904 -0.823479 0.1637985 0.5431873 0.7757051 -0.3213056 0.5431798 -0.8396152 0 0.5431817 0.823479 -0.1637985 0.5431873 -0.823479 -0.1637985 0.5431873 0.8396152 0 0.5431817 -0.7757051 -0.3213056 0.5431798 0.823479 0.1637985 0.5431873 -0.6981087 -0.4664638 0.5431904 -0.5936957 -0.5936957 0.5431859 0.7757051 0.3213056 0.5431798 -0.4664638 -0.6981087 0.5431904 0 0.8396152 0.5431817 -0.1637985 0.823479 0.5431873 0.6981087 0.4664638 0.5431904 0.5936957 0.5936957 0.5431859 -0.3213056 -0.7757051 0.5431798 -0.1637985 -0.823479 0.5431873 -0.3213056 0.7757051 0.5431798 0.4664638 0.6981087 0.5431904 0 -0.8396152 0.5431817 0.3213056 0.7757051 0.5431798 -0.4664638 0.6981087 0.5431904 -0.5936957 0.5936957 0.5431859 0.1637985 0.823479 0.5431873 0.1637985 -0.823479 0.5431873 0.6687287 -0.4468263 0.5942628 -0.8042681 0 0.5942666 0.7430459 -0.307784 0.5942658 0.7888194 -0.1568971 0.594262 -0.7888194 -0.1568971 0.594262 0.8042681 0 0.5942666 -0.7430459 -0.307784 0.5942658 0.7888194 0.1568971 0.594262 -0.6687287 -0.4468263 0.5942628 -0.5686993 -0.5686993 0.5942746 0.7430459 0.307784 0.5942658 0.6687287 0.4468263 0.5942628 -0.4468263 -0.6687287 0.5942628 0 0.8042681 0.5942666 -0.1568971 0.7888194 0.594262 0.5686993 0.5686993 0.5942746 -0.307784 -0.7430459 0.5942658 -0.1568971 -0.7888194 0.594262 -0.307784 0.7430459 0.5942658 0.4468263 0.6687287 0.5942628 0 -0.8042681 0.5942666 0.307784 0.7430459 0.5942658 -0.4468263 0.6687287 0.5942628 -0.5686993 0.5686993 0.5942746 0.1568971 0.7888194 0.594262 0.1568971 -0.7888194 0.594262 0.307784 -0.7430459 0.5942658 -0.6687287 0.4468263 0.5942628 -0.7430459 0.307784 0.5942658 0.4468263 -0.6687287 0.5942628 0.5686993 -0.5686993 0.5942746 -0.7888194 0.1568971 0.594262 0.9484052 0 0.3170608 0.9301857 0.1850056 0.3170609 -0.7885717 -0.5269047 0.3170584 -0.6706236 -0.6706236 0.3170615 0.8762114 0.3629364 0.3170658 0.7885717 0.5269047 0.3170584 -0.5269047 -0.7885717 0.3170584 0 0.9484052 0.3170608 -0.1850056 0.9301857 0.3170609 0.6706236 0.6706236 0.3170615 -0.3629364 -0.8762114 0.3170658 -0.3629364 0.8762114 0.3170658 -0.1850056 -0.9301857 0.3170609 0 -0.9484052 0.3170608 0.5269047 0.7885717 0.3170584 0.3629364 0.8762114 0.3170658 -0.5269047 0.7885717 0.3170584 -0.6706236 0.6706236 0.3170615 0.1850056 0.9301857 0.3170609 0.1850056 -0.9301857 0.3170609 0.3629364 -0.8762114 0.3170658 -0.7885717 0.5269047 0.3170584 -0.8762114 0.3629364 0.3170658 0.5269047 -0.7885717 0.3170584 0.6706236 -0.6706236 0.3170615 0.7885717 -0.5269047 0.3170584 -0.9301857 0.1850056 0.3170609 0.8762114 -0.3629364 0.3170658 -0.9484052 0 0.3170608 0.9301857 -0.1850056 0.3170609 -0.9301857 -0.1850056 0.3170609 -0.8762114 -0.3629364 0.3170658 0 0.9662249 -0.2577006 -0.1884883 0.9476602 -0.2577064 0.8033877 0.5368024 -0.2577042 0.6832242 0.6832242 -0.2577006 -0.3697385 -0.8926828 -0.257703 -0.1884883 -0.9476602 -0.2577064 -0.3697385 0.8926828 -0.257703 0.5368024 0.8033877 -0.2577042 0 -0.9662249 -0.2577006 -0.5368024 0.8033877 -0.2577042 0.3697385 0.8926828 -0.257703 0.1884883 -0.9476602 -0.2577064 -0.6832242 0.6832242 -0.2577006 0.1884883 0.9476602 -0.2577064 0.3697385 -0.8926828 -0.257703 -0.8033877 0.5368024 -0.2577042 0.5368024 -0.8033877 -0.2577042 -0.8926828 0.3697385 -0.257703 0.6832242 -0.6832242 -0.2577006 -0.9476602 0.1884883 -0.2577064 0.8033877 -0.5368024 -0.2577042 -0.9662249 0 -0.2577006 0.8926828 -0.3697385 -0.257703 -0.9476602 -0.1884883 -0.2577064 0.9476602 -0.1884883 -0.2577064 -0.8926828 -0.3697385 -0.257703 0.9662249 0 -0.2577006 -0.8033877 -0.5368024 -0.2577042 0.9476602 0.1884883 -0.2577064 -0.6832242 -0.6832242 -0.2577006 0.8926828 0.3697385 -0.257703 -0.5368024 -0.8033877 -0.2577042 -0.4129808 0.6180979 -0.6688812 0.2844644 0.6867919 -0.6688774 0.1450245 -0.7290899 -0.6688766 -0.5256345 0.5256345 -0.6688923 -0.6180979 0.4129808 -0.6688812 0.1450245 0.7290899 -0.6688766 0 0.7433731 -0.668877 0.2844704 -0.6867758 -0.6688914 0.4129808 -0.6180979 -0.6688812 0.5256345 -0.5256345 -0.6688923 -0.6867758 0.2844704 -0.6688914 -0.7290899 0.1450245 -0.6688766 -0.7433731 0 -0.668877 0.6180979 -0.4129808 -0.6688812 0.6867919 -0.2844644 -0.6688774 -0.7290899 -0.1450245 -0.6688766 -0.6867758 -0.2844704 -0.6688914 0.7290899 -0.1450245 -0.6688766 -0.6180979 -0.4129808 -0.6688812 0.7433731 0 -0.668877 -0.5256345 -0.5256345 -0.6688923 0.7290899 0.1450245 -0.6688766 -0.4129808 -0.6180979 -0.6688812 0.6867758 0.2844704 -0.6688914 0.6180979 0.4129808 -0.6688812 -0.2844704 -0.6867758 -0.6688914 -0.1450245 -0.7290899 -0.6688766 -0.1450245 0.7290899 -0.6688766 0.5256345 0.5256345 -0.6688923 0.4129808 0.6180979 -0.6688812 -0.2844704 0.6867758 -0.6688914 0 -0.7433731 -0.668877 -0.2965228 0.1228085 -0.9470968 -0.3147743 0.06259471 -0.9471004 0.22694 -0.22694 -0.9470991 -0.3209391 0 -0.9470999 0.2668591 -0.1782926 -0.9470998 0.2965228 -0.1228085 -0.9470968 -0.3147743 -0.06259471 -0.9471004 -0.2965228 -0.1228085 -0.9470968 0.3147743 -0.06259471 -0.9471004 0.3209391 0 -0.9470999 -0.2668591 -0.1782926 -0.9470998 -0.22694 -0.22694 -0.9470991 0.3147743 0.06259471 -0.9471004 -0.1782926 -0.2668591 -0.9470998 0.2965228 0.1228085 -0.9470968 -0.1228085 -0.2965228 -0.9470968 0 0.3209391 -0.9470999 0.2668591 0.1782926 -0.9470998 -0.06259471 -0.3147743 -0.9471004 -0.06259471 0.3147743 -0.9471004 0.22694 0.22694 -0.9470991 0.1782926 0.2668591 -0.9470998 0 -0.3209391 -0.9470999 -0.1228085 0.2965228 -0.9470968 -0.1782926 0.2668591 -0.9470998 0.1228085 0.2965228 -0.9470968 0.06259471 -0.3147743 -0.9471004 -0.22694 0.22694 -0.9470991 -0.2668591 0.1782926 -0.9470998 0.06259471 0.3147743 -0.9471004 0.1228085 -0.2965228 -0.9470968 0.1782926 -0.2668591 -0.9470998 0 0 1</float_array>
          <technique_common>
            <accessor source="#Circle_003-mesh-normals-array" count="289" stride="3">
              <param name="X" type="float"/>
              <param name="Y" type="float"/>
              <param name="Z" type="float"/>
            </accessor>
          </technique_common>
        </source>
        <source id="Circle_003-mesh-colors-Col" name="Col">
          <float_array id="Circle_003-mesh-colors-Col-array" count="5184">1 1 1 1 1 1 1 1 1 1 1 1 1 1 1 1 1 1 1 1 1 1 1 1 1 1 1 1 1 1 1 1 1 1 1 1 1 1 1 1 1 1 1 1 1 1 1 1 1 1 1 1 1 1 1 1 1 1 1 1 1 1 1 1 1 1 1 1 1 1 1 1 1 1 1 1 1 1 1 1 1 1 1 1 1 1 1 1 1 1 1 1 1 1 1 1 1 1 1 1 1 1 1 1 1 1 1 1 1 1 1 1 1 1 1 1 1 1 1 1 1 1 1 1 1 1 1 1 1 1 1 1 1 1 1 1 1 1 1 1 1 1 1 1 1 1 1 1 1 1 1 1 1 1 1 1 1 1 1 1 1 1 1 1 1 1 1 1 1 1 1 1 1 1 1 1 1 1 1 1 1 1 1 1 1 1 1 1 1 1 1 1 1 1 1 1 1 1 1 1 1 1 1 1 1 1 1 1 1 1 1 1 1 1 1 1 1 1 1 1 1 1 1 1 1 1 1 1 1 1 1 1 1 1 1 1 1 1 1 1 1 1 1 1 1 1 1 1 1 1 1 1 1 1 1 1 1 1 1 1 1 1 1 1 1 1 1 1 1 1 1 1 1 1 1 1 1 1 1 1 1 1 1 1 1 1 1 1 1 1 1 1 1 1 1 1 1 1 1 1 1 1 1 1 1 1 1 1 1 1 1 1 1 1 1 1 1 1 1 1 1 1 1 1 1 1 1 1 1 1 1 1 1 1 1 1 1 1 1 1 1 1 1 1 1 1 1 1 1 1 1 1 1 1 1 1 1 1 1 1 1 1 1 1 1 1 1 1 1 1 1 1 1 1 1 1 1 1 1 1 1 1 1 1 1 1 1 1 1 1 1 1 1 1 1 1 1 1 1 1 1 1 1 1 1 1 1 1 1 1 1 1 1 1 1 1 1 1 1 1 1 1 1 1 1 1 1 1 1 1 1 1 1 1 1 1 1 1 1 1 1 1 1 1 1 1 1 1 1 1 1 1 1 1 1 1 1 1 1 1 1 1 1 1 1 1 1 1 1 1 1 1 1 1 1 1 1 1 1 1 1 1 1 1 1 1 1 1 1 1 1 1 1 1 1 1 1 1 1 1 1 1 1 1 1 1 1 1 1 1 1 1 1 1 1 1 1 1 1 1 1 1 1 1 1 1 1 1 1 1 1 1 1 1 1 1 1 1 1 1 1 1 1 1 1 1 1 1 1 1 1 1 1 1 1 1 1 1 1 1 1 1 1 1 1 1 1 1 1 1 1 1 1 1 1 1 1 1 1 1 1 1 1 1 1 1 1 1 1 1 1 1 1 1 1 1 1 1 1 1 1 1 1 1 1 1 1 1 1 1 1 1 1 1 1 1 1 1 1 1 1 1 1 1 1 1 1 1 1 1 1 1 1 1 1 1 1 1 1 1 1 1 1 1 1 1 1 1 1 1 1 1 1 1 1 1 1 1 1 1 1 1 1 1 1 1 1 1 1 1 1 1 1 1 1 1 1 1 1 1 1 1 1 1 1 1 1 1 1 1 1 1 1 1 1 1 1 1 1 1 1 1 1 1 1 1 1 1 1 1 1 1 1 1 1 1 1 1 1 1 1 1 1 1 1 1 1 1 1 1 1 1 1 1 1 1 1 1 1 1 1 1 1 1 1 1 1 1 1 1 1 1 1 1 1 1 1 1 1 1 1 1 1 1 1 1 1 1 1 1 1 1 1 1 1 1 1 1 1 1 1 1 1 1 1 1 1 1 1 1 1 1 1 1 1 1 1 1 1 1 1 1 1 1 1 1 1 1 1 1 1 1 1 1 1 1 1 1 1 1 1 1 1 1 1 1 1 1 1 1 1 1 1 1 1 1 1 1 1 1 1 1 1 1 1 1 1 1 1 1 1 1 1 1 1 1 1 1 1 1 1 1 1 1 1 1 1 1 1 1 1 1 1 1 1 1 1 1 1 1 1 1 1 1 1 1 1 1 1 1 1 1 1 1 1 1 1 1 1 1 1 1 1 1 1 1 1 1 1 1 1 1 1 1 1 1 1 1 1 1 1 1 1 1 1 1 1 1 1 1 1 1 1 1 1 1 1 1 1 1 1 1 1 1 1 1 1 1 1 1 1 1 1 1 1 1 1 1 1 1 1 1 1 1 1 1 1 1 1 1 1 1 1 1 1 1 1 1 1 1 1 1 1 1 1 1 1 1 1 1 1 1 1 1 1 1 1 1 1 1 1 1 1 1 1 1 1 1 1 1 1 1 1 1 1 1 1 1 1 1 1 1 1 1 1 1 1 1 1 1 1 1 1 1 1 1 1 1 1 1 1 1 1 1 1 1 1 1 1 1 1 1 1 1 1 1 1 1 1 1 1 1 1 1 1 1 1 1 1 1 1 1 1 1 1 1 1 1 1 1 1 1 1 1 1 1 1 1 1 1 1 1 1 1 1 1 1 1 1 1 1 1 1 1 1 1 1 1 1 1 1 1 1 1 1 1 1 1 1 1 1 1 1 1 1 1 1 1 1 1 1 1 1 1 1 1 1 1 1 1 1 1 1 1 1 1 1 1 1 1 1 1 1 1 1 1 1 1 1 1 1 1 1 1 1 1 1 1 1 1 1 1 1 1 1 1 1 1 1 1 1 1 1 1 1 1 1 1 1 1 1 1 1 1 1 1 1 1 1 1 1 1 1 1 1 1 1 1 1 1 1 1 1 1 1 1 1 1 1 1 1 1 1 1 1 1 1 1 1 1 1 1 1 1 1 1 1 1 1 1 1 1 1 1 1 1 1 1 1 1 1 1 1 1 1 1 1 1 1 1 1 1 1 1 1 1 1 1 1 1 1 1 1 1 1 1 1 1 1 1 1 1 1 1 1 1 1 1 1 1 1 1 1 1 1 1 1 1 1 1 1 1 1 1 1 1 1 1 1 1 1 1 1 1 1 1 1 1 1 1 1 1 1 1 1 1 1 1 1 1 1 1 1 1 1 1 1 1 1 1 1 1 1 1 1 1 1 1 1 1 1 1 1 1 1 1 1 1 1 1 1 1 1 1 1 1 1 1 1 1 1 1 1 1 1 1 1 1 1 1 1 1 1 1 1 1 1 1 1 1 1 1 1 1 1 1 1 1 1 1 1 1 1 1 1 1 1 1 1 1 1 1 1 1 1 1 1 1 1 1 1 1 1 1 1 1 1 1 1 1 1 1 1 1 1 1 1 1 1 1 1 1 1 1 1 1 1 1 1 1 1 1 1 1 1 1 1 1 1 1 1 1 1 1 1 1 1 1 1 1 1 1 1 1 1 1 1 1 1 1 1 1 1 1 1 1 1 1 1 1 1 1 1 1 1 1 1 1 1 1 1 1 1 1 1 1 1 1 1 1 1 1 1 1 1 1 1 1 1 1 1 1 1 1 1 1 1 1 1 1 1 1 1 1 1 1 1 1 1 1 1 1 1 1 1 1 1 1 1 1 1 1 1 1 1 1 1 1 1 1 1 1 1 1 1 1 1 1 1 1 1 1 1 1 1 1 1 1 1 1 1 1 1 1 1 1 1 1 1 1 1 1 1 1 1 1 1 1 1 1 1 1 1 1 1 1 1 1 1 1 1 1 1 1 1 1 1 1 1 1 1 1 1 1 1 1 1 1 1 1 1 1 1 1 1 1 1 1 1 1 1 1 1 1 1 1 1 1 1 1 1 1 1 1 1 1 1 1 1 1 1 1 1 1 1 1 1 1 1 1 1 1 1 1 1 1 1 1 1 1 1 1 1 1 1 1 1 1 1 1 1 1 1 1 1 1 1 1 1 1 1 1 1 1 1 1 1 1 1 1 1 1 1 1 1 1 1 1 1 1 1 1 1 1 1 1 1 1 1 1 1 1 1 1 1 1 1 1 1 1 1 1 1 1 1 1 1 1 1 1 1 1 1 1 1 1 1 1 1 1 1 1 1 1 1 1 1 1 1 1 1 1 1 1 1 1 1 1 1 1 1 1 1 1 1 1 1 1 1 1 1 1 1 1 1 1 1 1 1 1 1 1 1 1 1 1 1 1 1 1 1 1 1 1 1 1 1 1 1 1 1 1 1 1 1 1 1 1 1 1 1 1 1 1 1 1 1 1 1 1 1 1 1 1 1 1 1 1 1 1 1 1 1 1 1 1 1 1 1 1 1 1 1 1 1 1 1 1 1 1 1 1 1 1 1 1 1 1 1 1 1 1 1 1 1 1 1 1 1 1 1 1 1 1 1 1 1 1 1 1 1 1 1 1 1 1 1 1 1 1 1 1 1 1 1 1 1 1 1 1 1 1 1 1 1 1 1 1 1 1 1 1 1 1 1 1 1 1 1 1 1 1 1 1 1 1 1 1 1 1 1 1 1 1 1 1 1 1 1 1 1 1 1 1 1 1 1 1 1 1 1 1 1 1 1 1 1 1 1 1 1 1 1 1 1 1 1 1 1 1 1 1 1 1 1 1 1 1 1 1 1 1 1 1 1 1 1 1 1 1 1 1 1 1 1 1 1 1 1 1 1 1 1 1 1 1 1 1 1 1 1 1 1 1 1 1 1 1 1 1 1 1 1 1 1 1 1 1 1 1 1 1 1 1 1 1 1 1 1 1 1 1 1 1 1 1 1 1 1 1 1 1 1 1 1 1 1 1 1 1 1 1 1 1 1 1 1 1 1 1 1 1 1 1 1 1 1 1 1 1 1 1 1 1 1 1 1 1 1 1 1 1 1 1 1 1 1 1 1 1 1 1 1 1 1 1 1 1 1 1 1 1 1 1 1 1 1 1 1 1 1 1 1 1 1 1 1 1 1 1 1 1 1 1 1 1 1 1 1 1 1 1 1 1 1 1 1 1 1 1 1 1 1 1 1 1 1 1 1 1 1 1 1 1 1 1 1 1 1 1 1 1 1 1 1 1 1 1 1 1 1 1 1 1 1 1 1 1 1 1 1 1 1 1 1 1 1 1 1 1 1 1 1 1 1 1 1 1 1 1 1 1 1 1 1 1 1 1 1 1 1 1 1 1 1 1 1 1 1 1 1 1 1 1 1 1 1 1 1 1 1 1 1 1 1 1 1 1 1 1 1 1 1 1 1 1 1 1 1 1 1 1 1 1 1 1 1 1 1 1 1 1 1 1 1 1 1 1 1 1 1 1 1 1 1 1 1 1 1 1 1 1 1 1 1 1 1 1 1 1 1 1 1 1 1 1 1 1 1 1 1 1 1 1 1 1 1 1 1 1 1 1 1 1 1 1 1 1 1 1 1 1 1 1 1 1 1 1 1 1 1 1 1 1 1 1 1 1 1 1 1 1 1 1 1 1 1 1 1 1 1 1 1 1 1 1 1 1 1 1 1 1 1 1 1 1 1 1 1 1 1 1 1 1 1 1 1 1 1 1 1 1 1 1 1 1 1 1 1 1 1 1 1 1 1 1 1 1 1 1 1 1 1 1 1 1 1 1 1 1 1 1 1 1 1 1 1 1 1 1 1 1 1 1 1 1 1 1 1 1 1 1 1 1 1 1 1 1 1 1 1 1 1 1 1 1 1 1 1 1 1 1 1 1 1 1 1 1 1 1 1 1 1 1 1 1 1 1 1 1 1 1 1 1 1 1 1 1 1 1 1 1 1 1 1 1 1 1 1 1 1 1 1 1 1 1 1 1 1 1 1 1 1 1 1 1 1 1 1 1 1 1 1 1 1 1 1 1 1 1 1 1 1 1 1 1 1 1 1 1 1 1 1 1 1 1 1 1 1 1 1 1 1 1 1 1 1 1 1 1 1 1 1 1 1 1 1 1 1 1 1 1 1 1 1 1 1 1 1 1 1 1 1 1 1 1 1 1 1 1 1 1 1 1 1 1 1 1 1 1 1 1 1 1 1 1 1 1 1 1 1 1 1 1 1 1 1 1 1 1 1 1 1 1 1 1 1 1 1 1 1 1 1 1 1 1 1 1 1 1 1 1 1 1 1 1 1 1 1 1 1 1 1 1 1 1 1 1 1 1 1 1 1 1 1 1 1 1 1 1 1 1 1 1 1 1 1 1 1 1 1 1 1 1 1 1 1 1 1 1 1 1 1 1 1 1 1 1 1 1 1 1 1 1 1 1 1 1 1 1 1 1 1 1 1 1 1 1 1 1 1 1 1 1 1 1 1 1 1 1 1 1 1 1 1 1 1 1 1 1 1 1 1 1 1 1 1 1 1 1 1 1 1 1 1 1 1 1 1 1 1 1 1 1 1 1 1 1 1 1 1 1 1 1 1 1 1 1 1 1 1 1 1 1 1 1 1 1 1 1 1 1 1 1 1 1 1 1 1 1 1 1 1 1 1 1 1 1 1 1 1 1 1 1 1 1 1 1 1 1 1 1 1 1 1 1 1 1 1 1 1 1 1 1 1 1 1 1 1 1 1 1 1 1 1 1 1 1 1 1 1 1 1 1 1 1 1 1 1 1 1 1 1 1 1 1 1 1 1 1 1 1 1 1 1 1 1 1 1 1 1 1 1 1 1 1 1 1 1 1 1 1 1 1 1 1 1 1 1 1 1 1 1 1 1 1 1 1 1 1 1 1 1 1 1 1 1 1 1 1 1 1 1 1 1 1 1 1 1 1 1 1 1 1 1 1 1 1 1 1 1 1 1 1 1 1 1 1 1 1 1 1 1 1 1 1 1 1 1 1 1 1 1 1 1 1 1 1 1 1 1 1 1 1 1 1 1 1 1 1 1 1 1 1 1 1 1 1 1 1 1 1 1 1 1 1 1 1 1 1 1 1 1 1 1 1 1 1 1 1 1 1 1 1 1 1 1 1 1 1 1 1 1 1 1 1 1 1 1 1 1 1 1 1 1 1 1 1 1 1 1 1 1 1 1 1 1 1 1 1 1 1 1 1 1 1 1 1 1 1 1 1 1 1 1 1 1 1 1 1 1 1 1 1 1 1 1 1 1 1 1 1 1 1 1 1 1 1 1 1 1 1 1 1 1 1 1 1 1 1 1 1 1 1 1 1 1 1 1 1 1 1 1 1 1 1 1 1 1 1 1 1 1 1 1 1 1 1 1 1 1 1 1 1 1 1 1 1 1 1 1 1 1 1 1 1 1 1 1 1 1 1 1 1 1 1 1 1 1 1 1 1 1 1 1 1 1 1 1 1 1 1 1 1 1 1 1 1 1 1 1 1 1 1 1 1 1 1 1 1 1 1 1 1 1 1 1 1 1 1 1 1 1 1 1 1 1 1 1 1 1 1 1 1 1 1 1 1 1 1 1 1 1 1 1 1 1 1 1 1 1 1 1 1 1 1 1 1 1 1 1 1 1 1 1 1 1 1 1 1 1 1 1 1 1 1 1 1 1 1 1 1 1 1 1 1 1 1 1 1 1 1 1 1 1 1 1 1 1 1 1 1 1 1 1 1 1 1 1 1 1 1 1 1 1 1 1 1 1 1 1 1 1 1 1 1 1 1 1 1 1 1 1 1 1 1 1 1 1 1 1 1 1 1 1 1 1 1 1 1 1 1 1 1 1 1 1 1 1 1 1 1 1 1 1 1 1 1 1 1 1 1 1 1 1 1 1 1 1 1 1 1 1 1 1 1 1 1 1 1 1 1 1 1 1 1 1 1 1 1 1 1 1 1 1 1 1 1 1 1 1 1 1 1 1 1 1 1 1 1 1 1 1 1 1 1 1 1 1 1 1 1 1 1 1 1 1 1 1 1 1 1 1 1 1 1 1 1 1 1 1 1 1 1 1 1 1 1 1 1 1 1 1 1 1 1 1 1 1 1 1 1 1 1 1 1 1 1 1 1 1 1 1 1 1 1 1 1 1 1 1 1 1 1 1 1 1 1 1 1 1 1 1 1 1 1 1 1 1 1 1 1 1 1 1 1 1 1 1 1 1 1 1 1 1 1 1 1 1 1 1 1 1 1 1 1 1 1 1 1 1 1 1 1 1 1 1 1 1 1 1 1 1 1 1 1 1 1 1 1 1 1 1 1 1 1 1 1 1 1 1 1 1 1 1 1 1 1 1 1 1 1 1 1 1 1 1 1 1 1 1 1 1 1 1 1 1 1 1 1 1 1 1 1 1 1 1 1 1 1 1 1 1 1 1 1 1 1 1 1 1 1 1 1 1 1 1 1 1 1 1 1 1 1 1 1 1 1 1 1 1 1 1 1 1 1 1 1 1 1 1 1 1 1 1 1 1 1 1 1 1 1 1 1 1 1 1 1 1 1 1 1 1 1 1 1 1 1 1 1 1 1 1 1 1 1 1 1 1 1 1 1 1 1 1 1 1 1 1 1 1 1 1 1 1 1 1 1 1 1 1 1 1 1 1 1 1 1 1 1 1 1 1 1 1 1 1 1 1 1 1 1 1 1 1 1 1 1 1 1 1 1 1 1 1 1 1 1 1 1 1 1 1 1 1 1 1 1 1 1 1 1 1 1 1 1 1 1 1 1 1 1 1 1 1 1 1 1 1 1 1 1 1 1 1 1 1 1 1 1 1 1 1 1 1 1 1 1 1 1 1 1 1 1 1 1 1 1 1 1 1 1 1 1 1 1 1 1 1 1 1 1 1 1 1 1 1 1 1 1 1 1 1 1 1 1 1 1 1 1 1 1 1 1 1 1 1 1 1 1 1 1 1 1 1 1 1 1 1 1 1 1 1 1 1 1 1 1 1 1 1 1 1 1 1 1 1 1 1 1 1 1 1 1 1 1 1 1 1 1 1 1 1 1 1 1 1 1 1 1 1 1 1 1 1 1 1 1 1 1 1 1 1 1 1 1 1 1 1 1 1 1 1 1 1 1 1 1 1 1 1 1 1 1 1 1 1 1 1 1 1 1 1 1 1 1 1 1 1 1 1 1 1 1 1 1 1 1 1 1 1 1 1 1 1 1 1 1 1 1 1 1 1 1 1 1 1 1 1 1 1 1 1 1 1 1 1 1 1 1 1 1 1 1 1 1 1 1 1 1 1 1 1 1 1 1 1 1 1 1 1 1 1 1 1 1 1 1 1 1 1 1 1 1 1 1 1 1 1 1 1 1 1 1 1 1 1 1 1 1 1 1 1 1 1 1 1 1 1 1 1 1 1 1 1 1 1 1 1 1 1 1 1 1 1 1 1 1 1 1 1 1 1 1 1 1 1 1 1 1 1 1 1 1 1 1 1 1 1 1 1 1 1 1 1 1 1 1 1 1 1 1 1 1 1 1 1 1 1 1 1 1 1 1 1 1 1 1 1 1 1 1 1 1 1 1 1 1 1 1 1 1 1 1 1 1 1 1 1 1 1 1 1 1 1 1 1 1 1 1 1 1 1 1 1 1 1 1 1 1 1 1 1 1 1 1 1 1 1 1 1 1 1 1 1 1 1 1 1 1 1 1 1 1 1 1 1 1 1 1 1 1 1 1 1 1 1 1 1 1 1 1 1 1 1 1 1 1 1 1 1 1 1 1 1 1 1 1 1 1 1 1 1 1 1 1 1 1 1 1 1 1 1 1 1 1 1 1 1 1 1 1 1 1 1 1 1 1 1 1 1 1 1 1 1 1 1 1 1 1 1 1 1 1 1 1 1 1 1 1 1 1 1 1 1 1 1 1 1 1 1 1 1 1 1 1 1 1 1 1 1 1 1 1 1 1 1 1 1 1 1 1 1 1 1 1 1 1 1 1 1 1 1 1 1 1 1 1 1 1 1 1 1 1 1 1 1 1 1 1 1 1 1 1 1 1 1 1 1 1 1 1 1 1 1 1 1 1 1 1 1 1 1 1 1 1 1 1 1 1 1 1 1 1 1 1 1 1 1 1 1 1 1 1 1 1 1 1 1 1 1 1 1 1 1 1 1 1 1 1 1 1 1 1 1 1 1 1 1 1 1 1 1 1 1 1 1 1 1 1 1 1 1 1 1 1 1 1 1 1 1 1 1 1 1 1 1 1 1 1 1 1 1 1 1 1 1 1 1 1 1 1 1 1 1 1 1 1 1 1 1 1 1 1 1 1 1 1 1 1 1 1 1 1 1 1 1 1 1 1 1 1 1 1 1 1 1 1 1 1 1 1 1 1 1 1 1 1 1 1 1 1 1 1 1 1 1 1 1 1 1 1 1 1 1 1 1 1 1 1 1 1 1 1 1 1 1 1 1 1 1 1 1 1 1 1 1 1 1 1 1 1 1 1 1 1 1 1 1 1 1 1 1 1 1 1 1 1 1 1 1 1 1 1 1 1 1 1 1 1 1 1 1 1 1 1 1 1 1 1 1 1 1 1 1 1 1 1 1 1 1 1 1 1 1 1 1 1 1 1 1 1 1 1 1 1 1 1 1 1 1 1 1 1 1 1 1 1 1 1 1 1 1 1 1 1 1 1 1 1 1 1 1 1 1 1 1 1 1 1 1 1 1 1 1 1 1 1 1 1 1 1 1 1 1 1 1 1 1 1 1 1 1 1 1 1 1 1 1 1 1 1 1 1 1 1 1 1 1 1 1 1 1 1 1 1 1 1 1 1 1 1 1 1 1 1 1 1 1 1 1 1 1 1 1 1 1 1 1 1 1 1 1 1 1 1 1 1 1 1 1 1 1 1 1 1 1 1 1 1 1 1 1 1 1 1 1 1 1 1 1 1 1 1 1 1 1 1 1 1 1 1 1 1 1 1 1 1 1 1 1 1 1 1 1 1 1 1 1 1 1 1 1 1 1 1 1 1 1 1 1 1 1 1 1 1 1 1 1 1 1 1 1 1 1 1 1 1 1 1 1 1 1 1 1 1 1 1 1 1 1 1 1 1 1 1 1 1 1 1 1 1 1 1 1 1 1 1 1 1 1 1 1 1 1 1 1 1 1 1 1 1 1 1 1 1 1 1 1 1 1 1 1 1 1 1 1 1 1 1 1 1 1 1 1 1 1 1 1 1 1 1 1 1 1 1 1 1 1 1 1 1 1 1 1 1 1 1 1 1 1 1 1 1 1 1 1 1 1 1 1 1 1 1 1 1 1 1 1 1 1 1 1 1 1 1 1 1 1 1 1 1 1 1 1 1 1 1 1 1 1 1 1 1 1 1 1 1 1 1 1 1 1 1 1 1 1 1 1 1 1 1 1 1 1 1 1 1 1 1 1 1 1 1 1 1 1 1 1 1 1 1 1 1 1 1 1 1 1 1 1 1 1 1 1 1 1 1 1 1 1 1 1 1 1 1 1 1 1 1 1 1 1 1 1 1 1 1 1 1 1 1 1 1 1 1 1 1 1 1 1 1 1 1 1 1 1 1 1 1 1 1 1 1 1 1 1 1 1 1 1 1 1 1 1 1 1 1 1 1 1 1 1 1 1 1 1 1 1 1 1 1 1 1 1 1 1 1 1 1 1 1 1 1 1 1 1 1 1 1 1 1 1 1 1 1 1 1 1 1 1 1 1 1 1 1 1 1 1 1 1 1 1 1 1 1 1 1 1 1 1 1 1 1 1 1 1 1 1 1 1 1 1 1 1 1 1 1 1 1 1 1 1 1 1 1 1 1 1 1 1 1 1 1 1 1 1 1 1 1 1 1 1 1 1 1 1 1 1 1 1 1 1 1 1 1 1 1 1 1 1 1 1 1 1 1 1 1 1 1 1 1 1 1 1 1 1 1 1 1 1 1 1 1</float_array>
          <technique_common>
            <accessor source="#Circle_003-mesh-colors-Col-array" count="1728" stride="3">
              <param name="R" type="float"/>
              <param name="G" type="float"/>
              <param name="B" type="float"/>
            </accessor>
          </technique_common>
        </source>
        <vertices id="Circle_003-mesh-vertices">
          <input semantic="POSITION" source="#Circle_003-mesh-positions"/>
        </vertices>
        <polylist material="erlenmeyer-material" count="576">
          <input semantic="VERTEX" source="#Circle_003-mesh-vertices" offset="0"/>
          <input semantic="NORMAL" source="#Circle_003-mesh-normals" offset="1"/>
          <input semantic="COLOR" source="#Circle_003-mesh-colors-Col" offset="2" set="0"/>
          <vcount>3 3 3 3 3 3 3 3 3 3 3 3 3 3 3 3 3 3 3 3 3 3 3 3 3 3 3 3 3 3 3 3 3 3 3 3 3 3 3 3 3 3 3 3 3 3 3 3 3 3 3 3 3 3 3 3 3 3 3 3 3 3 3 3 3 3 3 3 3 3 3 3 3 3 3 3 3 3 3 3 3 3 3 3 3 3 3 3 3 3 3 3 3 3 3 3 3 3 3 3 3 3 3 3 3 3 3 3 3 3 3 3 3 3 3 3 3 3 3 3 3 3 3 3 3 3 3 3 3 3 3 3 3 3 3 3 3 3 3 3 3 3 3 3 3 3 3 3 3 3 3 3 3 3 3 3 3 3 3 3 3 3 3 3 3 3 3 3 3 3 3 3 3 3 3 3 3 3 3 3 3 3 3 3 3 3 3 3 3 3 3 3 3 3 3 3 3 3 3 3 3 3 3 3 3 3 3 3 3 3 3 3 3 3 3 3 3 3 3 3 3 3 3 3 3 3 3 3 3 3 3 3 3 3 3 3 3 3 3 3 3 3 3 3 3 3 3 3 3 3 3 3 3 3 3 3 3 3 3 3 3 3 3 3 3 3 3 3 3 3 3 3 3 3 3 3 3 3 3 3 3 3 3 3 3 3 3 3 3 3 3 3 3 3 3 3 3 3 3 3 3 3 3 3 3 3 3 3 3 3 3 3 3 3 3 3 3 3 3 3 3 3 3 3 3 3 3 3 3 3 3 3 3 3 3 3 3 3 3 3 3 3 3 3 3 3 3 3 3 3 3 3 3 3 3 3 3 3 3 3 3 3 3 3 3 3 3 3 3 3 3 3 3 3 3 3 3 3 3 3 3 3 3 3 3 3 3 3 3 3 3 3 3 3 3 3 3 3 3 3 3 3 3 3 3 3 3 3 3 3 3 3 3 3 3 3 3 3 3 3 3 3 3 3 3 3 3 3 3 3 3 3 3 3 3 3 3 3 3 3 3 3 3 3 3 3 3 3 3 3 3 3 3 3 3 3 3 3 3 3 3 3 3 3 3 3 3 3 3 3 3 3 3 3 3 3 3 3 3 3 3 3 3 3 3 3 3 3 3 3 3 3 3 3 3 3 3 3 3 3 3 3 3 3 3 3 3 3 3 3 3 3 3 3 3 3 3 3 3 3 3 3 3 3 3 3 3 3 3 3 3 3 3 3 3 3 3 3 3 3 3 3 3 3 3 3 3 3 3 3 3 3 3 3 3 3 3 3 3 3 3 3 3 3 3 3 3 3 3 3 3 3 3 3 3 3 </vcount>
          <p>21 0 0 20 1 1 52 2 2 7 3 3 39 4 4 40 5 5 22 6 6 21 0 7 53 7 8 8 8 9 40 5 10 41 9 11 23 10 12 22 6 13 54 11 14 9 12 15 41 9 16 42 13 17 24 14 18 23 10 19 55 15 20 10 16 21 42 13 22 43 17 23 25 18 24 24 14 25 56 19 26 11 20 27 43 17 28 44 21 29 26 22 30 25 18 31 57 23 32 12 24 33 44 21 34 45 25 35 27 26 36 26 22 37 58 27 38 13 28 39 45 25 40 46 29 41 1 30 42 0 31 43 32 32 44 28 33 45 27 26 46 59 34 47 15 35 48 14 36 49 46 29 50 2 37 51 1 30 52 33 38 53 29 39 54 28 33 55 60 40 56 15 35 57 47 41 58 48 42 59 2 37 60 34 43 61 35 44 62 30 45 63 29 39 64 61 46 65 16 47 66 48 42 67 49 48 68 3 49 69 35 44 70 36 50 71 31 51 72 30 45 73 62 52 74 18 53 75 17 54 76 49 48 77 4 55 78 36 50 79 37 56 80 31 51 81 63 57 82 32 32 83 18 53 84 50 58 85 51 59 86 5 60 87 37 56 88 38 61 89 20 1 90 19 62 91 51 59 92 6 63 93 38 61 94 39 4 95 47 41 96 79 64 97 80 65 98 34 43 99 66 66 100 67 67 101 61 46 102 93 68 103 94 69 104 48 42 105 80 65 106 81 70 107 35 44 108 67 67 109 68 71 110 62 52 111 94 69 112 95 72 113 49 48 114 81 70 115 82 73 116 36 50 117 68 71 118 69 74 119 63 57 120 95 72 121 64 75 122 50 58 123 82 73 124 83 76 125 37 56 126 69 74 127 70 77 128 51 59 129 83 76 130 84 78 131 38 61 132 70 77 133 71 79 134 52 2 135 84 78 136 85 80 137 39 4 138 71 79 139 72 81 140 53 7 141 85 80 142 86 82 143 40 5 144 72 81 145 73 83 146 54 11 147 86 82 148 87 84 149 41 9 150 73 83 151 74 85 152 55 15 153 87 84 154 88 86 155 42 13 156 74 85 157 75 87 158 56 19 159 88 86 160 89 88 161 43 17 162 75 87 163 76 89 164 57 23 165 89 88 166 90 90 167 44 21 168 76 89 169 77 91 170 58 27 171 90 90 172 91 92 173 45 25 174 77 91 175 78 93 176 32 32 177 64 75 178 65 94 179 59 34 180 91 92 181 92 95 182 46 29 183 78 93 184 79 64 185 33 38 186 65 94 187 66 66 188 60 40 189 92 95 190 93 68 191 83 76 192 82 73 193 114 96 194 69 74 195 101 97 196 102 98 197 83 76 198 115 99 199 116 100 200 71 79 201 70 77 202 102 98 203 84 78 204 116 100 205 117 101 206 72 81 207 71 79 208 103 102 209 85 80 210 117 101 211 118 103 212 73 83 213 72 81 214 104 104 215 86 82 216 118 103 217 119 105 218 74 85 219 73 83 220 105 106 221 87 84 222 119 105 223 120 107 224 75 87 225 74 85 226 106 108 227 88 86 228 120 107 229 121 109 230 75 87 231 107 110 232 108 111 233 89 88 234 121 109 235 122 112 236 77 91 237 76 89 238 108 111 239 91 92 240 90 90 241 122 112 242 78 93 243 77 91 244 109 113 245 64 75 246 96 114 247 97 115 248 91 92 249 123 116 250 124 117 251 78 93 252 110 118 253 111 119 254 65 94 255 97 115 256 98 120 257 92 95 258 124 117 259 125 121 260 79 64 261 111 119 262 112 122 263 67 67 264 66 66 265 98 120 266 93 68 267 125 121 268 126 123 269 81 70 270 80 65 271 112 122 272 67 67 273 99 124 274 100 125 275 94 69 276 126 123 277 127 126 278 81 70 279 113 127 280 114 96 281 69 74 282 68 71 283 100 125 284 64 75 285 95 72 286 127 126 287 118 103 288 117 101 289 149 128 290 105 106 291 104 104 292 136 129 293 118 103 294 150 130 295 151 131 296 106 108 297 105 106 298 137 132 299 119 105 300 151 131 301 152 133 302 107 110 303 106 108 304 138 134 305 120 107 306 152 133 307 153 135 308 107 110 309 139 136 310 140 137 311 121 109 312 153 135 313 154 138 314 109 113 315 108 111 316 140 137 317 122 112 318 154 138 319 155 139 320 110 118 321 109 113 322 141 140 323 96 114 324 128 141 325 129 142 326 123 116 327 155 139 328 156 143 329 110 118 330 142 144 331 143 145 332 97 115 333 129 142 334 130 146 335 124 117 336 156 143 337 157 147 338 111 119 339 143 145 340 144 148 341 99 124 342 98 120 343 130 146 344 125 121 345 157 147 346 158 149 347 113 127 348 112 122 349 144 148 350 99 124 351 131 150 352 132 151 353 126 123 354 158 149 355 159 152 356 113 127 357 145 153 358 146 154 359 101 97 360 100 125 361 132 151 362 96 114 363 127 126 364 159 152 365 115 99 366 114 96 367 146 154 368 101 97 369 133 155 370 134 156 371 115 99 372 147 157 373 148 158 374 103 102 375 102 98 376 134 156 377 116 100 378 148 158 379 149 128 380 104 104 381 103 102 382 135 159 383 152 133 384 184 160 385 185 161 386 139 136 387 171 162 388 172 163 389 153 135 390 185 161 391 186 164 392 141 140 393 140 137 394 172 163 395 154 138 396 186 164 397 187 165 398 142 144 399 141 140 400 173 166 401 128 141 402 160 167 403 161 168 404 155 139 405 187 165 406 188 169 407 143 145 408 142 144 409 174 170 410 129 142 411 161 168 412 162 171 413 157 147 414 156 143 415 188 169 416 143 145 417 175 172 418 176 173 419 131 150 420 130 146 421 162 171 422 157 147 423 189 174 424 190 175 425 145 153 426 144 148 427 176 173 428 131 150 429 163 176 430 164 177 431 158 149 432 190 175 433 191 178 434 145 153 435 177 179 436 178 180 437 133 155 438 132 151 439 164 177 440 128 141 441 159 152 442 191 178 443 147 157 444 146 154 445 178 180 446 133 155 447 165 181 448 166 182 449 147 157 450 179 183 451 180 184 452 135 159 453 134 156 454 166 182 455 148 158 456 180 184 457 181 185 458 136 129 459 135 159 460 167 186 461 149 128 462 181 185 463 182 187 464 137 132 465 136 129 466 168 188 467 150 130 468 182 187 469 183 189 470 138 134 471 137 132 472 169 190 473 151 131 474 183 189 475 184 160 476 139 136 477 138 134 478 170 191 479 160 167 480 192 192 481 193 193 482 187 165 483 219 194 484 220 195 485 174 170 486 206 196 487 207 197 488 161 168 489 193 193 490 194 198 491 188 169 492 220 195 493 221 199 494 175 172 495 207 197 496 208 200 497 162 171 498 194 198 499 195 201 500 189 174 501 221 199 502 222 202 503 176 173 504 208 200 505 209 203 506 163 176 507 195 201 508 196 204 509 190 175 510 222 202 511 223 205 512 177 179 513 209 203 514 210 206 515 164 177 516 196 204 517 197 207 518 191 178 519 223 205 520 192 192 521 178 180 522 210 206 523 211 208 524 165 181 525 197 207 526 198 209 527 179 183 528 211 208 529 212 210 530 166 182 531 198 209 532 199 211 533 180 184 534 212 210 535 213 212 536 167 186 537 199 211 538 200 213 539 181 185 540 213 212 541 214 214 542 168 188 543 200 213 544 201 215 545 182 187 546 214 214 547 215 216 548 169 190 549 201 215 550 202 217 551 183 189 552 215 216 553 216 218 554 170 191 555 202 217 556 203 219 557 184 160 558 216 218 559 217 220 560 171 162 561 203 219 562 204 221 563 185 161 564 217 220 565 218 222 566 172 163 567 204 221 568 205 223 569 186 164 570 218 222 571 219 194 572 173 166 573 205 223 574 206 196 575 196 204 576 195 201 577 227 224 578 223 205 579 222 202 580 254 225 581 210 206 582 209 203 583 241 226 584 196 204 585 228 227 586 229 228 587 223 205 588 255 229 589 224 230 590 210 206 591 242 231 592 243 232 593 198 209 594 197 207 595 229 228 596 211 208 597 243 232 598 244 233 599 198 209 600 230 234 601 231 235 602 213 212 603 212 210 604 244 233 605 199 211 606 231 235 607 232 236 608 213 212 609 245 237 610 246 238 611 200 213 612 232 236 613 233 239 614 215 216 615 214 214 616 246 238 617 201 215 618 233 239 619 234 240 620 216 218 621 215 216 622 247 241 623 202 217 624 234 240 625 235 242 626 217 220 627 216 218 628 248 243 629 203 219 630 235 242 631 236 244 632 218 222 633 217 220 634 249 245 635 204 221 636 236 244 637 237 246 638 218 222 639 250 247 640 251 248 641 205 223 642 237 246 643 238 249 644 193 193 645 192 192 646 224 230 647 220 195 648 219 194 649 251 248 650 206 196 651 238 249 652 239 250 653 194 198 654 193 193 655 225 251 656 220 195 657 252 252 658 253 253 659 208 200 660 207 197 661 239 250 662 194 198 663 226 254 664 227 224 665 221 199 666 253 253 667 254 225 668 208 200 669 240 255 670 241 226 671 230 234 672 262 256 673 263 257 674 245 237 675 244 233 676 276 258 677 231 235 678 263 257 679 264 259 680 245 237 681 277 260 682 278 261 683 232 236 684 264 259 685 265 262 686 247 241 687 246 238 688 278 261 689 233 239 690 265 262 691 266 263 692 247 241 693 279 264 694 280 265 695 234 240 696 266 263 697 267 266 698 249 245 699 248 243 700 280 265 701 235 242 702 267 266 703 268 267 704 250 247 705 249 245 706 281 268 707 236 244 708 268 267 709 269 269 710 251 248 711 250 247 712 282 270 713 237 246 714 269 269 715 270 271 716 225 251 717 224 230 718 256 272 719 252 252 720 251 248 721 283 273 722 238 249 723 270 271 724 271 274 725 226 254 726 225 251 727 257 275 728 252 252 729 284 276 730 285 277 731 239 250 732 271 274 733 272 278 734 226 254 735 258 279 736 259 280 737 253 253 738 285 277 739 286 281 740 240 255 741 272 278 742 273 282 743 227 224 744 259 280 745 260 283 746 255 229 747 254 225 748 286 281 749 242 231 750 241 226 751 273 282 752 228 227 753 260 283 754 261 284 755 255 229 756 287 285 757 256 272 758 242 231 759 274 286 760 275 287 761 229 228 762 261 284 763 262 256 764 243 232 765 275 287 766 276 258 767 265 262 768 297 288 769 298 288 770 279 264 771 311 288 772 312 288 773 266 263 774 298 288 775 299 288 776 281 268 777 280 265 778 312 288 779 268 267 780 267 266 781 299 288 782 282 270 783 281 268 784 313 288 785 268 267 786 300 288 787 301 288 788 283 273 789 282 270 790 314 288 791 269 269 792 301 288 793 302 288 794 257 275 795 256 272 796 288 288 797 283 273 798 315 288 799 316 288 800 270 271 801 302 288 802 303 288 803 258 279 804 257 275 805 289 288 806 284 276 807 316 288 808 317 288 809 272 278 810 271 274 811 303 288 812 258 279 813 290 288 814 291 288 815 285 277 816 317 288 817 318 288 818 272 278 819 304 288 820 305 288 821 259 280 822 291 288 823 292 288 824 287 285 825 286 281 826 318 288 827 274 286 828 273 282 829 305 288 830 260 283 831 292 288 832 293 288 833 287 285 834 319 288 835 288 288 836 274 286 837 306 288 838 307 288 839 262 256 840 261 284 841 293 288 842 275 287 843 307 288 844 308 288 845 262 256 846 294 288 847 295 288 848 277 260 849 276 258 850 308 288 851 263 257 852 295 288 853 296 288 854 278 261 855 277 260 856 309 288 857 265 262 858 264 259 859 296 288 860 278 261 861 310 288 862 311 288 863 53 7 864 21 0 865 52 2 866 8 8 867 7 3 868 40 5 869 54 11 870 22 6 871 53 7 872 9 12 873 8 8 874 41 9 875 55 15 876 23 10 877 54 11 878 10 16 879 9 12 880 42 13 881 56 19 882 24 14 883 55 15 884 11 20 885 10 16 886 43 17 887 57 23 888 25 18 889 56 19 890 12 24 891 11 20 892 44 21 893 58 27 894 26 22 895 57 23 896 13 28 897 12 24 898 45 25 899 59 34 900 27 26 901 58 27 902 14 36 903 13 28 904 46 29 905 33 38 906 1 30 907 32 32 908 60 40 909 28 33 910 59 34 911 47 41 912 15 35 913 46 29 914 34 43 915 2 37 916 33 38 917 61 46 918 29 39 919 60 40 920 16 47 921 15 35 922 48 42 923 3 49 924 2 37 925 35 44 926 62 52 927 30 45 928 61 46 929 17 54 930 16 47 931 49 48 932 4 55 933 3 49 934 36 50 935 63 57 936 31 51 937 62 52 938 50 58 939 18 53 940 49 48 941 5 60 942 4 55 943 37 56 944 0 31 945 31 51 946 32 32 947 19 62 948 18 53 949 51 59 950 6 63 951 5 60 952 38 61 953 52 2 954 20 1 955 51 59 956 7 3 957 6 63 958 39 4 959 48 42 960 47 41 961 80 65 962 35 44 963 34 43 964 67 67 965 62 52 966 61 46 967 94 69 968 49 48 969 48 42 970 81 70 971 36 50 972 35 44 973 68 71 974 63 57 975 62 52 976 95 72 977 50 58 978 49 48 979 82 73 980 37 56 981 36 50 982 69 74 983 32 32 984 63 57 985 64 75 986 51 59 987 50 58 988 83 76 989 38 61 990 37 56 991 70 77 992 52 2 993 51 59 994 84 78 995 39 4 996 38 61 997 71 79 998 53 7 999 52 2 1000 85 80 1001 40 5 1002 39 4 1003 72 81 1004 54 11 1005 53 7 1006 86 82 1007 41 9 1008 40 5 1009 73 83 1010 55 15 1011 54 11 1012 87 84 1013 42 13 1014 41 9 1015 74 85 1016 56 19 1017 55 15 1018 88 86 1019 43 17 1020 42 13 1021 75 87 1022 57 23 1023 56 19 1024 89 88 1025 44 21 1026 43 17 1027 76 89 1028 58 27 1029 57 23 1030 90 90 1031 45 25 1032 44 21 1033 77 91 1034 59 34 1035 58 27 1036 91 92 1037 46 29 1038 45 25 1039 78 93 1040 33 38 1041 32 32 1042 65 94 1043 60 40 1044 59 34 1045 92 95 1046 47 41 1047 46 29 1048 79 64 1049 34 43 1050 33 38 1051 66 66 1052 61 46 1053 60 40 1054 93 68 1055 115 99 1056 83 76 1057 114 96 1058 70 77 1059 69 74 1060 102 98 1061 84 78 1062 83 76 1063 116 100 1064 103 102 1065 71 79 1066 102 98 1067 85 80 1068 84 78 1069 117 101 1070 104 104 1071 72 81 1072 103 102 1073 86 82 1074 85 80 1075 118 103 1076 105 106 1077 73 83 1078 104 104 1079 87 84 1080 86 82 1081 119 105 1082 106 108 1083 74 85 1084 105 106 1085 88 86 1086 87 84 1087 120 107 1088 107 110 1089 75 87 1090 106 108 1091 89 88 1092 88 86 1093 121 109 1094 76 89 1095 75 87 1096 108 111 1097 90 90 1098 89 88 1099 122 112 1100 109 113 1101 77 91 1102 108 111 1103 123 116 1104 91 92 1105 122 112 1106 110 118 1107 78 93 1108 109 113 1109 65 94 1110 64 75 1111 97 115 1112 92 95 1113 91 92 1114 124 117 1115 79 64 1116 78 93 1117 111 119 1118 66 66 1119 65 94 1120 98 120 1121 93 68 1122 92 95 1123 125 121 1124 80 65 1125 79 64 1126 112 122 1127 99 124 1128 67 67 1129 98 120 1130 94 69 1131 93 68 1132 126 123 1133 113 127 1134 81 70 1135 112 122 1136 68 71 1137 67 67 1138 100 125 1139 95 72 1140 94 69 1141 127 126 1142 82 73 1143 81 70 1144 114 96 1145 101 97 1146 69 74 1147 100 125 1148 96 114 1149 64 75 1150 127 126 1151 150 130 1152 118 103 1153 149 128 1154 137 132 1155 105 106 1156 136 129 1157 119 105 1158 118 103 1159 151 131 1160 138 134 1161 106 108 1162 137 132 1163 120 107 1164 119 105 1165 152 133 1166 139 136 1167 107 110 1168 138 134 1169 121 109 1170 120 107 1171 153 135 1172 108 111 1173 107 110 1174 140 137 1175 122 112 1176 121 109 1177 154 138 1178 141 140 1179 109 113 1180 140 137 1181 123 116 1182 122 112 1183 155 139 1184 142 144 1185 110 118 1186 141 140 1187 97 115 1188 96 114 1189 129 142 1190 124 117 1191 123 116 1192 156 143 1193 111 119 1194 110 118 1195 143 145 1196 98 120 1197 97 115 1198 130 146 1199 125 121 1200 124 117 1201 157 147 1202 112 122 1203 111 119 1204 144 148 1205 131 150 1206 99 124 1207 130 146 1208 126 123 1209 125 121 1210 158 149 1211 145 153 1212 113 127 1213 144 148 1214 100 125 1215 99 124 1216 132 151 1217 127 126 1218 126 123 1219 159 152 1220 114 96 1221 113 127 1222 146 154 1223 133 155 1224 101 97 1225 132 151 1226 128 141 1227 96 114 1228 159 152 1229 147 157 1230 115 99 1231 146 154 1232 102 98 1233 101 97 1234 134 156 1235 116 100 1236 115 99 1237 148 158 1238 135 159 1239 103 102 1240 134 156 1241 117 101 1242 116 100 1243 149 128 1244 136 129 1245 104 104 1246 135 159 1247 153 135 1248 152 133 1249 185 161 1250 140 137 1251 139 136 1252 172 163 1253 154 138 1254 153 135 1255 186 164 1256 173 166 1257 141 140 1258 172 163 1259 155 139 1260 154 138 1261 187 165 1262 174 170 1263 142 144 1264 173 166 1265 129 142 1266 128 141 1267 161 168 1268 156 143 1269 155 139 1270 188 169 1271 175 172 1272 143 145 1273 174 170 1274 130 146 1275 129 142 1276 162 171 1277 189 174 1278 157 147 1279 188 169 1280 144 148 1281 143 145 1282 176 173 1283 163 176 1284 131 150 1285 162 171 1286 158 149 1287 157 147 1288 190 175 1289 177 179 1290 145 153 1291 176 173 1292 132 151 1293 131 150 1294 164 177 1295 159 152 1296 158 149 1297 191 178 1298 146 154 1299 145 153 1300 178 180 1301 165 181 1302 133 155 1303 164 177 1304 160 167 1305 128 141 1306 191 178 1307 179 183 1308 147 157 1309 178 180 1310 134 156 1311 133 155 1312 166 182 1313 148 158 1314 147 157 1315 180 184 1316 167 186 1317 135 159 1318 166 182 1319 149 128 1320 148 158 1321 181 185 1322 168 188 1323 136 129 1324 167 186 1325 150 130 1326 149 128 1327 182 187 1328 169 190 1329 137 132 1330 168 188 1331 151 131 1332 150 130 1333 183 189 1334 170 191 1335 138 134 1336 169 190 1337 152 133 1338 151 131 1339 184 160 1340 171 162 1341 139 136 1342 170 191 1343 161 168 1344 160 167 1345 193 193 1346 188 169 1347 187 165 1348 220 195 1349 175 172 1350 174 170 1351 207 197 1352 162 171 1353 161 168 1354 194 198 1355 189 174 1356 188 169 1357 221 199 1358 176 173 1359 175 172 1360 208 200 1361 163 176 1362 162 171 1363 195 201 1364 190 175 1365 189 174 1366 222 202 1367 177 179 1368 176 173 1369 209 203 1370 164 177 1371 163 176 1372 196 204 1373 191 178 1374 190 175 1375 223 205 1376 178 180 1377 177 179 1378 210 206 1379 165 181 1380 164 177 1381 197 207 1382 160 167 1383 191 178 1384 192 192 1385 179 183 1386 178 180 1387 211 208 1388 166 182 1389 165 181 1390 198 209 1391 180 184 1392 179 183 1393 212 210 1394 167 186 1395 166 182 1396 199 211 1397 181 185 1398 180 184 1399 213 212 1400 168 188 1401 167 186 1402 200 213 1403 182 187 1404 181 185 1405 214 214 1406 169 190 1407 168 188 1408 201 215 1409 183 189 1410 182 187 1411 215 216 1412 170 191 1413 169 190 1414 202 217 1415 184 160 1416 183 189 1417 216 218 1418 171 162 1419 170 191 1420 203 219 1421 185 161 1422 184 160 1423 217 220 1424 172 163 1425 171 162 1426 204 221 1427 186 164 1428 185 161 1429 218 222 1430 173 166 1431 172 163 1432 205 223 1433 187 165 1434 186 164 1435 219 194 1436 174 170 1437 173 166 1438 206 196 1439 228 227 1440 196 204 1441 227 224 1442 255 229 1443 223 205 1444 254 225 1445 242 231 1446 210 206 1447 241 226 1448 197 207 1449 196 204 1450 229 228 1451 192 192 1452 223 205 1453 224 230 1454 211 208 1455 210 206 1456 243 232 1457 230 234 1458 198 209 1459 229 228 1460 212 210 1461 211 208 1462 244 233 1463 199 211 1464 198 209 1465 231 235 1466 245 237 1467 213 212 1468 244 233 1469 200 213 1470 199 211 1471 232 236 1472 214 214 1473 213 212 1474 246 238 1475 201 215 1476 200 213 1477 233 239 1478 247 241 1479 215 216 1480 246 238 1481 202 217 1482 201 215 1483 234 240 1484 248 243 1485 216 218 1486 247 241 1487 203 219 1488 202 217 1489 235 242 1490 249 245 1491 217 220 1492 248 243 1493 204 221 1494 203 219 1495 236 244 1496 250 247 1497 218 222 1498 249 245 1499 205 223 1500 204 221 1501 237 246 1502 219 194 1503 218 222 1504 251 248 1505 206 196 1506 205 223 1507 238 249 1508 225 251 1509 193 193 1510 224 230 1511 252 252 1512 220 195 1513 251 248 1514 207 197 1515 206 196 1516 239 250 1517 226 254 1518 194 198 1519 225 251 1520 221 199 1521 220 195 1522 253 253 1523 240 255 1524 208 200 1525 239 250 1526 195 201 1527 194 198 1528 227 224 1529 222 202 1530 221 199 1531 254 225 1532 209 203 1533 208 200 1534 241 226 1535 231 235 1536 230 234 1537 263 257 1538 277 260 1539 245 237 1540 276 258 1541 232 236 1542 231 235 1543 264 259 1544 246 238 1545 245 237 1546 278 261 1547 233 239 1548 232 236 1549 265 262 1550 279 264 1551 247 241 1552 278 261 1553 234 240 1554 233 239 1555 266 263 1556 248 243 1557 247 241 1558 280 265 1559 235 242 1560 234 240 1561 267 266 1562 281 268 1563 249 245 1564 280 265 1565 236 244 1566 235 242 1567 268 267 1568 282 270 1569 250 247 1570 281 268 1571 237 246 1572 236 244 1573 269 269 1574 283 273 1575 251 248 1576 282 270 1577 238 249 1578 237 246 1579 270 271 1580 257 275 1581 225 251 1582 256 272 1583 284 276 1584 252 252 1585 283 273 1586 239 250 1587 238 249 1588 271 274 1589 258 279 1590 226 254 1591 257 275 1592 253 253 1593 252 252 1594 285 277 1595 240 255 1596 239 250 1597 272 278 1598 227 224 1599 226 254 1600 259 280 1601 254 225 1602 253 253 1603 286 281 1604 241 226 1605 240 255 1606 273 282 1607 228 227 1608 227 224 1609 260 283 1610 287 285 1611 255 229 1612 286 281 1613 274 286 1614 242 231 1615 273 282 1616 229 228 1617 228 227 1618 261 284 1619 224 230 1620 255 229 1621 256 272 1622 243 232 1623 242 231 1624 275 287 1625 230 234 1626 229 228 1627 262 256 1628 244 233 1629 243 232 1630 276 258 1631 266 263 1632 265 262 1633 298 288 1634 280 265 1635 279 264 1636 312 288 1637 267 266 1638 266 263 1639 299 288 1640 313 288 1641 281 268 1642 312 288 1643 300 288 1644 268 267 1645 299 288 1646 314 288 1647 282 270 1648 313 288 1649 269 269 1650 268 267 1651 301 288 1652 315 288 1653 283 273 1654 314 288 1655 270 271 1656 269 269 1657 302 288 1658 289 288 1659 257 275 1660 288 288 1661 284 276 1662 283 273 1663 316 288 1664 271 274 1665 270 271 1666 303 288 1667 290 288 1668 258 279 1669 289 288 1670 285 277 1671 284 276 1672 317 288 1673 304 288 1674 272 278 1675 303 288 1676 259 280 1677 258 279 1678 291 288 1679 286 281 1680 285 277 1681 318 288 1682 273 282 1683 272 278 1684 305 288 1685 260 283 1686 259 280 1687 292 288 1688 319 288 1689 287 285 1690 318 288 1691 306 288 1692 274 286 1693 305 288 1694 261 284 1695 260 283 1696 293 288 1697 256 272 1698 287 285 1699 288 288 1700 275 287 1701 274 286 1702 307 288 1703 294 288 1704 262 256 1705 293 288 1706 276 258 1707 275 287 1708 308 288 1709 263 257 1710 262 256 1711 295 288 1712 309 288 1713 277 260 1714 308 288 1715 264 259 1716 263 257 1717 296 288 1718 310 288 1719 278 261 1720 309 288 1721 297 288 1722 265 262 1723 296 288 1724 279 264 1725 278 261 1726 311 288 1727</p>
        </polylist>
      </mesh>
    </geometry>
    <geometry id="Plane-mesh" name="Plane">
      <mesh>
        <source id="Plane-mesh-positions">
          <float_array id="Plane-mesh-positions-array" count="36">-1 -1 0 1 -1 0 -1 1 0 1 1 0 -1 -1 0 1 -1 0 -1 1 0 1 1 0 -1 -1 0 1 -1 0 -1 1 0 1 1 0</float_array>
          <technique_common>
            <accessor source="#Plane-mesh-positions-array" count="12" stride="3">
              <param name="X" type="float"/>
              <param name="Y" type="float"/>
              <param name="Z" type="float"/>
            </accessor>
          </technique_common>
        </source>
        <source id="Plane-mesh-normals">
          <float_array id="Plane-mesh-normals-array" count="6">0 0 -1 0 0 1</float_array>
          <technique_common>
            <accessor source="#Plane-mesh-normals-array" count="2" stride="3">
              <param name="X" type="float"/>
              <param name="Y" type="float"/>
              <param name="Z" type="float"/>
            </accessor>
          </technique_common>
        </source>
        <vertices id="Plane-mesh-vertices">
          <input semantic="POSITION" source="#Plane-mesh-positions"/>
        </vertices>
        <polylist material="Material_001-material" count="20">
          <input semantic="VERTEX" source="#Plane-mesh-vertices" offset="0"/>
          <input semantic="NORMAL" source="#Plane-mesh-normals" offset="1"/>
          <vcount>3 3 3 3 3 3 3 3 3 3 3 3 3 3 3 3 3 3 3 3 </vcount>
          <p>2 0 3 0 1 0 7 1 11 1 9 1 3 1 7 1 5 1 0 1 4 1 6 1 2 1 6 1 7 1 1 1 5 1 4 1 9 1 11 1 10 1 4 1 8 1 10 1 6 1 10 1 11 1 5 1 9 1 8 1 0 0 2 0 1 0 5 1 7 1 9 1 1 1 3 1 5 1 2 1 0 1 6 1 3 1 2 1 7 1 0 1 1 1 4 1 8 1 9 1 10 1 6 1 4 1 10 1 7 1 6 1 11 1 4 1 5 1 8 1</p>
        </polylist>
      </mesh>
    </geometry>
  </library_geometries>
  <library_controllers/>
  <library_visual_scenes>
    <visual_scene id="Scene" name="Scene">
      <node id="Circle" name="Circle" type="NODE">
        <matrix sid="transform">0.9028808 0 0 2.521698 0 0.9028808 0 3.878726 0 0 0.9028808 4.641944 0 0 0 1</matrix>
        <instance_geometry url="#Circle_003-mesh" name="Circle">
          <bind_material>
            <technique_common>
              <instance_material symbol="erlenmeyer-material" target="#erlenmeyer-material"/>
            </technique_common>
          </bind_material>
        </instance_geometry>
      </node>
      <node id="Plane" name="Plane" type="NODE">
        <matrix sid="transform">4.766358 0 0 3.83093 0 4.766358 0 3.940382 0 0 -4.766358 -0.01062083 0 0 0 1</matrix>
        <instance_geometry url="#Plane-mesh" name="Plane">
          <bind_material>
            <technique_common>
              <instance_material symbol="Material_001-material" target="#Material_001-material"/>
            </technique_common>
          </bind_material>
        </instance_geometry>
      </node>
      <node id="Camera" name="Camera" type="NODE">
        <matrix sid="transform">-0.3521014 0.5386234 -0.7654473 1.879487 -0.9359619 -0.2026272 0.2879542 4.939735 -1.54162e-6 0.8178185 0.5754762 1.685467 0 0 0 1</matrix>
        <instance_camera url="#Camera-camera"/>
      </node>
      <node id="Camera_001" name="Camera_001" type="NODE">
        <matrix sid="transform">0.1988457 0.2283694 -0.9530518 -61.66061 -0.9800308 0.04633258 -0.1933725 -8.606281 -3.01193e-6 0.9724715 0.2330221 16.64834 0 0 0 1</matrix>
        <instance_camera url="#Camera_001-camera"/>
      </node>
    </visual_scene>
  </library_visual_scenes>
  <scene>
    <instance_visual_scene url="#Scene"/>
  </scene>
</COLLADA>